pipeline/single_cycle/temp/coremain.vcd
$date
	Fri Dec 15 13:33:47 2023
$end
$version
	Icarus Verilog
$end
$timescale
	1ps
$end
$scope module core_main_tb $end
$var reg 1 ! clk $end
$var reg 1 " enable $end
$var reg 32 # instruction [31:0] $end
$var reg 1 $ rst $end
$scope module u_core_main0 $end
$var wire 1 ! clk $end
$var wire 1 " enable $end
$var wire 32 % instruction [31:0] $end
$var wire 1 $ rst $end
$var wire 32 & store_data [31:0] $end
$var wire 32 ' pc_address [31:0] $end
$var wire 4 ( mask [3:0] $end
$var wire 32 ) load_data_out [31:0] $end
$var wire 1 * load $end
$var wire 1 + instruction_mem_we_re $end
$var wire 1 , instruction_mem_request $end
$var wire 32 - instruction_data [31:0] $end
$var wire 1 . instruc_mem_valid $end
$var wire 4 / instruc_mask_singal [3:0] $end
$var wire 1 0 data_mem_we_re $end
$var wire 1 1 data_mem_valid $end
$var wire 1 2 data_mem_request $end
$var wire 32 3 alu_out_address [31:0] $end
$scope module u_core $end
$var wire 32 4 alu_out_address [31:0] $end
$var wire 1 ! clk $end
$var wire 1 * load_signal $end
$var wire 4 5 mask_singal [3:0] $end
$var wire 1 $ rst $end
$var wire 32 6 wrap_load_out [31:0] $end
$var wire 32 7 u_immediate [31:0] $end
$var wire 32 8 store_data_out [31:0] $end
$var wire 1 9 store $end
$var wire 32 : rd_wb_data [31:0] $end
$var wire 2 ; rd_sel [1:0] $end
$var wire 32 < pre_address_pc_pp [31:0] $end
$var wire 32 = pre_address_pc [31:0] $end
$var wire 32 > pc_address [31:0] $end
$var wire 32 ? opb_mux_out [31:0] $end
$var wire 32 @ opa_mux_out [31:0] $end
$var wire 32 A op_b [31:0] $end
$var wire 4 B mask [3:0] $end
$var wire 32 C load_data_in [31:0] $end
$var wire 1 D load $end
$var wire 1 + instruction_mem_we_re $end
$var wire 1 , instruction_mem_request $end
$var wire 32 E instruction [31:0] $end
$var wire 1 . instruc_mem_valid $end
$var wire 4 F instruc_mask_singal [3:0] $end
$var wire 32 G instruc_data_out_pp [31:0] $end
$var wire 32 H instruc_data_out [31:0] $end
$var wire 1 0 data_mem_we_re $end
$var wire 1 1 data_mem_valid $end
$var wire 1 2 data_mem_request $end
$var wire 1 I branch_result $end
$var wire 32 J alu_res_out [31:0] $end
$var wire 4 K alu_control [3:0] $end
$var wire 1 L Jalr $end
$var wire 1 M Jal $end
$var wire 1 N Branch_on $end
$scope module u_dec0 $end
$var wire 1 N branch_on $end
$var wire 1 ! clk $end
$var wire 32 O opb_data [31:0] $end
$var wire 1 $ rst $end
$var wire 32 P u_immediate [31:0] $end
$var wire 1 1 valid $end
$var wire 32 Q uj_immo [31:0] $end
$var wire 32 R u_immo [31:0] $end
$var wire 1 9 store $end
$var wire 32 S sb_immo [31:0] $end
$var wire 32 T s_immo [31:0] $end
$var wire 1 U reg_write $end
$var wire 32 V rd_wb_data [31:0] $end
$var wire 2 W rd_sel [1:0] $end
$var wire 32 X program_counter [31:0] $end
$var wire 1 Y operand_b $end
$var wire 1 Z operand_a $end
$var wire 32 [ opb_mux_out [31:0] $end
$var wire 32 \ opa_mux_out [31:0] $end
$var wire 32 ] op_b [31:0] $end
$var wire 32 ^ op_a [31:0] $end
$var wire 1 _ mem_to_reg $end
$var wire 1 ` mem_en $end
$var wire 32 a m2out [31:0] $end
$var wire 1 D load $end
$var wire 3 b imm_sel [2:0] $end
$var wire 32 c i_immo [31:0] $end
$var wire 32 d data1 [31:0] $end
$var wire 1 e branchen $end
$var wire 1 I branch_result $end
$var wire 1 f auipc_en $end
$var wire 4 g alu_control [3:0] $end
$var wire 1 h Lui $end
$var wire 1 L Jalr $end
$var wire 1 M Jal $end
$scope module u_branch0 $end
$var wire 3 i fun3 [2:0] $end
$var wire 32 j op_b [31:0] $end
$var wire 32 k op_a [31:0] $end
$var wire 1 e en $end
$var reg 1 I result $end
$upscope $end
$scope module u_cu0 $end
$var wire 3 l fun3 [2:0] $end
$var wire 1 m fun7 $end
$var wire 7 n opcode [6:0] $end
$var wire 1 1 valid $end
$var wire 1 o store $end
$var wire 1 U reg_write $end
$var wire 2 p rd_sel [1:0] $end
$var wire 1 q r_type $end
$var wire 1 Y operand_b $end
$var wire 1 Z operand_a $end
$var wire 1 _ mem_to_reg $end
$var wire 1 ` mem_en $end
$var wire 1 r lui $end
$var wire 1 s load $end
$var wire 1 t jalr $end
$var wire 1 u jal $end
$var wire 3 v imm_sel [2:0] $end
$var wire 1 w i_type $end
$var wire 1 x branch $end
$var wire 1 y auipc $end
$var wire 4 z alu_control [3:0] $end
$var wire 1 9 Store $end
$var wire 1 h Lui $end
$var wire 1 D Load $end
$var wire 1 L Jalr $end
$var wire 1 M Jal $end
$var wire 1 e Branch $end
$var wire 1 f Auipc $end
$scope module ucd0 $end
$var wire 3 { fun3 [2:0] $end
$var wire 1 m fun7 $end
$var wire 1 o store $end
$var wire 1 q r_type $end
$var wire 1 r lui $end
$var wire 1 s load $end
$var wire 1 t jalr $end
$var wire 1 u jal $end
$var wire 1 w i_type $end
$var wire 1 x branch $end
$var wire 1 y auipc $end
$var reg 1 f Auipc $end
$var reg 1 e Branch $end
$var reg 1 M Jal $end
$var reg 1 L Jalr $end
$var reg 1 D Load $end
$var reg 1 h Lui $end
$var reg 1 9 Store $end
$var reg 4 | alu_control [3:0] $end
$var reg 3 } imm_sel [2:0] $end
$var reg 1 ` mem_en $end
$var reg 1 _ mem_to_reg $end
$var reg 1 Z operand_a $end
$var reg 1 Y operand_b $end
$var reg 2 ~ rd_sel [1:0] $end
$var reg 1 U reg_write $end
$var reg 1 !" write_read $end
$upscope $end
$scope module utd0 $end
$var wire 7 "" opcode [6:0] $end
$var wire 1 1 valid $end
$var reg 1 y auipc $end
$var reg 1 x branch $end
$var reg 1 w i_type $end
$var reg 1 u jal $end
$var reg 1 t jalr $end
$var reg 1 s load $end
$var reg 1 r lui $end
$var reg 1 q r_type $end
$var reg 1 o store $end
$upscope $end
$upscope $end
$scope module u_ig0 $end
$var wire 32 #" instr [31:0] $end
$var reg 32 $" i_imme [31:0] $end
$var reg 32 %" s_imme [31:0] $end
$var reg 32 &" sb_imme [31:0] $end
$var reg 32 '" u_imme [31:0] $end
$var reg 32 (" uj_imme [31:0] $end
$upscope $end
$scope module u_mux $end
$var wire 32 )" a [31:0] $end
$var wire 32 *" b [31:0] $end
$var wire 32 +" c [31:0] $end
$var wire 32 ," d [31:0] $end
$var wire 32 -" e [31:0] $end
$var wire 3 ." sel [2:0] $end
$var wire 32 /" out [31:0] $end
$upscope $end
$scope module u_mux0 $end
$var wire 32 0" b [31:0] $end
$var wire 1 Y sel $end
$var wire 32 1" out [31:0] $end
$var wire 32 2" a [31:0] $end
$upscope $end
$scope module u_mux4 $end
$var wire 1 Z sel $end
$var wire 32 3" out [31:0] $end
$var wire 32 4" b [31:0] $end
$var wire 32 5" a [31:0] $end
$upscope $end
$scope module u_rf0 $end
$var wire 1 ! clk $end
$var wire 1 U en $end
$var wire 5 6" rd [4:0] $end
$var wire 5 7" rs1 [4:0] $end
$var wire 5 8" rs2 [4:0] $end
$var wire 1 $ rst $end
$var wire 32 9" op_b [31:0] $end
$var wire 32 :" op_a [31:0] $end
$var wire 32 ;" data [31:0] $end
$var integer 32 <" i [31:0] $end
$upscope $end
$upscope $end
$scope module u_execute0 $end
$var wire 32 =" a_i [31:0] $end
$var wire 4 >" alu_control [3:0] $end
$var wire 32 ?" b_i [31:0] $end
$var wire 32 @" alu_out [31:0] $end
$scope module u_alu0 $end
$var wire 32 A" a_i [31:0] $end
$var wire 32 B" b_i [31:0] $end
$var wire 4 C" op_i [3:0] $end
$var reg 32 D" res_o [31:0] $end
$upscope $end
$upscope $end
$scope module u_fet_pip0 $end
$var wire 1 M Jal $end
$var wire 1 L Jal_r $end
$var wire 1 I branch $end
$var wire 1 ! clk $end
$var wire 32 E" instruction_pp [31:0] $end
$var wire 1 D load $end
$var wire 32 F" pre_address_pc_pp [31:0] $end
$var wire 32 G" pre_address_pc [31:0] $end
$var wire 32 H" instruction [31:0] $end
$var reg 1 I" flush $end
$var reg 32 J" instruct [31:0] $end
$var reg 32 K" pre_address_out [31:0] $end
$upscope $end
$scope module u_fetch_stage0 $end
$var wire 1 N Branch $end
$var wire 32 L" address_in [31:0] $end
$var wire 32 M" alu_res [31:0] $end
$var wire 1 I b_result $end
$var wire 1 ! clk $end
$var wire 1 M jal $end
$var wire 1 L jalr $end
$var wire 1 D load $end
$var wire 1 $ rst $end
$var wire 1 1 valid $end
$var wire 32 N" pre_address_pc [31:0] $end
$var wire 32 O" instruction_fetch [31:0] $end
$var wire 32 P" address_out [31:0] $end
$var reg 32 Q" instruction [31:0] $end
$var reg 4 R" mask [3:0] $end
$var reg 1 , request $end
$var reg 1 + we_re $end
$scope module u_pc0 $end
$var wire 1 N Branch $end
$var wire 32 S" address_in [31:0] $end
$var wire 1 I b_result $end
$var wire 32 T" branch_address [31:0] $end
$var wire 1 ! clk $end
$var wire 1 M jal $end
$var wire 32 U" jal_address [31:0] $end
$var wire 1 L jalr $end
$var wire 32 V" jalr_address [31:0] $end
$var wire 1 D load $end
$var wire 32 W" pre_address_out [31:0] $end
$var wire 1 $ rst $end
$var wire 1 1 dmem_valid $end
$var reg 32 X" address_out [31:0] $end
$var reg 32 Y" pre_address [31:0] $end
$upscope $end
$upscope $end
$scope module u_memory_stage $end
$var wire 32 Z" alu_out_address [31:0] $end
$var wire 32 [" instruction [31:0] $end
$var wire 1 D load $end
$var wire 32 \" op_b [31:0] $end
$var wire 1 9 store $end
$var wire 32 ]" wrap_load_out [31:0] $end
$var wire 32 ^" wrap_load_in [31:0] $end
$var wire 1 . valid $end
$var wire 32 _" store_data_out [31:0] $end
$var wire 4 `" mask [3:0] $end
$var reg 1 2 request $end
$var reg 1 0 we_re $end
$scope module u_wm0 $end
$var wire 1 D Load $end
$var wire 2 a" byteadd [1:0] $end
$var wire 32 b" data_i [31:0] $end
$var wire 3 c" fun3 [2:0] $end
$var wire 1 9 mem_en $end
$var wire 32 d" wrap_load_in [31:0] $end
$var reg 32 e" data_o [31:0] $end
$var reg 4 f" masking [3:0] $end
$var reg 32 g" wrap_load_out [31:0] $end
$upscope $end
$upscope $end
$scope module u_writeback_stage2 $end
$var wire 32 h" alu_out [31:0] $end
$var wire 32 i" data_mem_out [31:0] $end
$var wire 2 j" mem_to_reg [1:0] $end
$var wire 32 k" pc_address [31:0] $end
$var wire 32 l" u_immo [31:0] $end
$var wire 32 m" rd_sel_mux_out [31:0] $end
$scope module u_0 $end
$var wire 32 n" alu_out [31:0] $end
$var wire 32 o" jal_addr [31:0] $end
$var wire 32 p" lui_addr [31:0] $end
$var wire 2 q" sel [1:0] $end
$var wire 32 r" wrapermout [31:0] $end
$var wire 32 s" out [31:0] $end
$upscope $end
$upscope $end
$upscope $end
$scope module u_data_memory0 $end
$var wire 8 t" address [7:0] $end
$var wire 1 ! clk $end
$var wire 1 * load $end
$var wire 4 u" masking [3:0] $end
$var wire 1 2 request $end
$var wire 1 $ rst $end
$var wire 32 v" w_data [31:0] $end
$var wire 1 0 we_re $end
$var wire 32 w" r_data [31:0] $end
$var reg 1 1 valid $end
$scope module u_mem0 $end
$var wire 8 x" address [7:0] $end
$var wire 1 ! clk $end
$var wire 4 y" masking [3:0] $end
$var wire 1 2 request $end
$var wire 32 z" w_data [31:0] $end
$var wire 1 0 we_re $end
$var reg 32 {" r_data [31:0] $end
$upscope $end
$upscope $end
$scope module u_instruction_mem0 $end
$var wire 8 |" address [7:0] $end
$var wire 1 ! clk $end
$var wire 4 }" masking [3:0] $end
$var wire 1 , request $end
$var wire 1 $ rst $end
$var wire 32 ~" w_data [31:0] $end
$var wire 1 + we_re $end
$var wire 32 !# r_data [31:0] $end
$var reg 1 . valid $end
$scope module u_mem0 $end
$var wire 8 "# address [7:0] $end
$var wire 1 ! clk $end
$var wire 4 ## masking [3:0] $end
$var wire 1 , request $end
$var wire 32 $# w_data [31:0] $end
$var wire 1 + we_re $end
$var reg 32 %# r_data [31:0] $end
$upscope $end
$upscope $end
$upscope $end
$upscope $end
$enddefinitions $end
#0
$dumpvars
bx %#
bx $#
bx ##
bx "#
bx !#
bx ~"
bx }"
bx |"
bx {"
bx z"
bx y"
bx x"
bx w"
bx v"
bx u"
bx t"
bx s"
bx r"
bx q"
bx p"
bx o"
bx n"
bx m"
bx l"
bx k"
bx j"
bx i"
bx h"
bx g"
bx f"
bx e"
bx d"
bx c"
bx b"
bx a"
bx `"
bx _"
bx ^"
bx ]"
bx \"
bx ["
bx Z"
bx Y"
bx X"
bx W"
bx V"
bx U"
bx T"
b0 S"
bx R"
bx Q"
bx P"
bx O"
bx N"
bx M"
b0 L"
bx K"
bx J"
xI"
bx H"
bx G"
bx F"
bx E"
bx D"
bx C"
bx B"
bx A"
bx @"
bx ?"
bx >"
bx ="
bx <"
bx ;"
bx :"
bx 9"
bx 8"
bx 7"
bx 6"
bx 5"
bx 4"
bx 3"
bx 2"
bx 1"
bx 0"
bx /"
bx ."
bx -"
bx ,"
bx +"
bx *"
bx )"
bx ("
bx '"
bx &"
bx %"
bx $"
bx #"
bx ""
x!"
bx ~
bx }
bx |
bx {
bx z
xy
xx
xw
bx v
xu
xt
xs
xr
xq
bx p
xo
bx n
xm
bx l
bx k
bx j
bx i
xh
bx g
xf
xe
bx d
bx c
bx b
bx a
x`
x_
bx ^
bx ]
bx \
bx [
xZ
xY
bx X
bx W
bx V
xU
bx T
bx S
bx R
bx Q
bx P
bx O
xN
xM
xL
bx K
bx J
xI
bx H
bx G
bx F
bx E
xD
bx C
bx B
bx A
bx @
bx ?
bx >
bx =
bx <
bx ;
bx :
x9
bx 8
bx 7
bx 6
bx 5
bx 4
bx 3
x2
x1
x0
bx /
x.
bx -
x,
x+
x*
bx )
bx (
bx '
bx &
bx %
1$
bx #
x"
0!
$end
#5000
0I"
1!
#10000
0I
0f
0h
0L
0M
0N
0e
09
0*
0D
0Z
0Y
0U
0y
0r
0t
0u
0x
0o
0s
0w
0q
1,
0+
b1111 /
b1111 F
b1111 R"
b1111 }"
b1111 ##
b0 |"
b0 "#
00
02
01
b0 '
b0 >
b0 P"
b0 X"
0.
b100000 <"
0!
0"
0$
#15000
b101000000000000100010011 H
b101000000000000100010011 H"
b101000000000000100010011 Q"
b0 =
b0 G"
b0 N"
b0 W"
b0 Y"
b101000000000000100010011 -
b101000000000000100010011 E
b101000000000000100010011 O"
b101000000000000100010011 !#
b101000000000000100010011 %#
b100000 <"
1!
#20000
0!
1$
#25000
b1010 :
b1010 V
b1010 ;"
b1010 m"
b1010 s"
b10 a"
b10 t"
b10 x"
b1010 3
b1010 4
b1010 J
b1010 @"
b1010 D"
b1010 M"
b1010 T"
b1010 U"
b1010 V"
b1010 Z"
b1010 h"
b1010 n"
b1010 ?
b1010 [
b1010 1"
b1010 ?"
b1010 B"
b0 @
b0 \
b0 3"
b0 ="
b0 A"
b1010 a
b1010 /"
b1010 0"
b0 A
b0 O
b0 \"
b0 b"
b0 ]
b0 j
b0 2"
b0 9"
b0 ^
b0 k
b0 5"
b0 :"
b0 K
b0 g
b0 z
b0 |
b0 >"
b0 C"
b1 b
b1 v
b1 }
b1 ."
b0 ;
b0 W
b0 p
b0 ~
b0 j"
b0 q"
1Y
1U
1w
b1 |"
b1 "#
b0 c"
b0 i
b10 6"
b1010 8"
b0 7"
0m
b0 l
b0 {
b10011 n
b10011 ""
b101000000000000000000000 7
b101000000000000000000000 P
b101000000000000000000000 l"
b101000000000000000000000 p"
b101000000000000000000000 R
b101000000000000000000000 '"
b101000000000000000000000 -"
b1010 Q
b1010 ("
b1010 ,"
b10 S
b10 &"
b10 +"
b10 T
b10 %"
b10 *"
b1010 c
b1010 $"
b1010 )"
b100 '
b100 >
b100 P"
b100 X"
1.
b0 <
b0 X
b0 4"
b0 F"
b0 K"
b0 k"
b0 o"
b101000000000000100010011 G
b101000000000000100010011 d
b101000000000000100010011 #"
b101000000000000100010011 E"
b101000000000000100010011 J"
b101000000000000100010011 ["
1!
#30000
0!
#35000
b10 |"
b10 "#
b1000010000000100110011 H
b1000010000000100110011 H"
b1000010000000100110011 Q"
b100 =
b100 G"
b100 N"
b100 W"
b100 Y"
b1000 '
b1000 >
b1000 P"
b1000 X"
b1000010000000100110011 -
b1000010000000100110011 E
b1000010000000100110011 O"
b1000010000000100110011 !#
b1000010000000100110011 %#
1!
#40000
0!
#45000
b10100 :
b10100 V
b10100 ;"
b10100 m"
b10100 s"
b0 a"
b101 t"
b101 x"
b10100 3
b10100 4
b10100 J
b10100 @"
b10100 D"
b10100 M"
b10100 T"
b10100 U"
b10100 V"
b10100 Z"
b10100 h"
b10100 n"
b1010 @
b1010 \
b1010 3"
b1010 ="
b1010 A"
0Y
b10 a
b10 /"
b10 0"
b1010 A
b1010 O
b1010 \"
b1010 b"
b1010 ]
b1010 j
b1010 2"
b1010 9"
b1010 ^
b1010 k
b1010 5"
b1010 :"
0w
1q
b11 |"
b11 "#
b1010000000000000011101111 H
b1010000000000000011101111 H"
b1010000000000000011101111 Q"
b10 8"
b10 7"
b110011 n
b110011 ""
b1000010000000000000000 7
b1000010000000000000000 P
b1000010000000000000000 l"
b1000010000000000000000 p"
b1000010000000000000000 R
b1000010000000000000000 '"
b1000010000000000000000 -"
b10000000000000010 Q
b10000000000000010 ("
b10000000000000010 ,"
b10 c
b10 $"
b10 )"
b1000 =
b1000 G"
b1000 N"
b1000 W"
b1000 Y"
b1100 '
b1100 >
b1100 P"
b1100 X"
b1010000000000000011101111 -
b1010000000000000011101111 E
b1010000000000000011101111 O"
b1010000000000000011101111 !#
b1010000000000000011101111 %#
b100 <
b100 X
b100 4"
b100 F"
b100 K"
b100 k"
b100 o"
b1000010000000100110011 G
b1000010000000100110011 d
b1000010000000100110011 #"
b1000010000000100110011 E"
b1000010000000100110011 J"
b1000010000000100110011 ["
1!
#50000
0!
#55000
b1100 :
b1100 V
b1100 ;"
b1100 m"
b1100 s"
b111 t"
b111 x"
b11100 3
b11100 4
b11100 J
b11100 @"
b11100 D"
b11100 M"
b11100 T"
b11100 U"
b11100 V"
b11100 Z"
b11100 h"
b11100 n"
b11 b
b11 v
b11 }
b11 ."
1M
b10 ;
b10 W
b10 p
b10 ~
b10 j"
b10 q"
1Z
1Y
b10100 a
b10100 /"
b10100 0"
b1000 @
b1000 \
b1000 3"
b1000 ="
b1000 A"
b10100 ?
b10100 [
b10100 1"
b10100 ?"
b10100 B"
0q
1u
b100 |"
b100 "#
b0 ^
b0 k
b0 5"
b0 :"
b0 A
b0 O
b0 \"
b0 b"
b0 ]
b0 j
b0 2"
b0 9"
b1 6"
b10100 8"
b0 7"
b1101111 n
b1101111 ""
b1010000000000000000000000 7
b1010000000000000000000000 P
b1010000000000000000000000 l"
b1010000000000000000000000 p"
b1010000000000000000000000 R
b1010000000000000000000000 '"
b1010000000000000000000000 -"
b10100 Q
b10100 ("
b10100 ,"
b100000000000 S
b100000000000 &"
b100000000000 +"
b1 T
b1 %"
b1 *"
b10100 c
b10100 $"
b10100 )"
b1111000010000000110010011 H
b1111000010000000110010011 H"
b1111000010000000110010011 Q"
b1100 =
b1100 G"
b1100 N"
b1100 W"
b1100 Y"
b10000 '
b10000 >
b10000 P"
b10000 X"
b1000 <
b1000 X
b1000 4"
b1000 F"
b1000 K"
b1000 k"
b1000 o"
b1010000000000000011101111 G
b1010000000000000011101111 d
b1010000000000000011101111 #"
b1010000000000000011101111 E"
b1010000000000000011101111 J"
b1010000000000000011101111 ["
b1111000010000000110010011 -
b1111000010000000110010011 E
b1111000010000000110010011 O"
b1111000010000000110010011 !#
b1111000010000000110010011 %#
1!
#60000
0!
#65000
b0 a
b0 /"
b0 0"
b0 ?
b0 [
b0 1"
b0 ?"
b0 B"
b100 :
b100 V
b100 ;"
b100 m"
b100 s"
b0 t"
b0 x"
0M
0Z
0Y
0U
b0 3
b0 4
b0 J
b0 @"
b0 D"
b0 M"
b0 T"
b0 U"
b0 V"
b0 Z"
b0 h"
b0 n"
0u
b111 |"
b111 "#
b1001000110111 H
b1001000110111 H"
b1001000110111 Q"
b0 @
b0 \
b0 3"
b0 ="
b0 A"
b0 6"
b0 8"
b0 n
b0 ""
b0 7
b0 P
b0 l"
b0 p"
b0 R
b0 '"
b0 -"
b0 Q
b0 ("
b0 ,"
b0 S
b0 &"
b0 +"
b0 T
b0 %"
b0 *"
b0 c
b0 $"
b0 )"
b10000 =
b10000 G"
b10000 N"
b10000 W"
b10000 Y"
b11100 '
b11100 >
b11100 P"
b11100 X"
b1001000110111 -
b1001000110111 E
b1001000110111 O"
b1001000110111 !#
b1001000110111 %#
b0 <
b0 X
b0 4"
b0 F"
b0 K"
b0 k"
b0 o"
1I"
b0 G
b0 d
b0 #"
b0 E"
b0 J"
b0 ["
1!
#70000
0!
#75000
b1000 |"
b1000 "#
b1000011000001100110011 H
b1000011000001100110011 H"
b1000011000001100110011 Q"
b11100 =
b11100 G"
b11100 N"
b11100 W"
b11100 Y"
b100000 '
b100000 >
b100000 P"
b100000 X"
0I"
b1000011000001100110011 -
b1000011000001100110011 E
b1000011000001100110011 O"
b1000011000001100110011 !#
b1000011000001100110011 %#
1!
#80000
0!
#85000
b101 t"
b101 x"
b11000000000000010 a
b11000000000000010 /"
b11000000000000010 0"
b10100 3
b10100 4
b10100 J
b10100 @"
b10100 D"
b10100 M"
b10100 T"
b10100 U"
b10100 V"
b10100 Z"
b10100 h"
b10100 n"
b10100 :
b10100 V
b10100 ;"
b10100 m"
b10100 s"
b10100 ?
b10100 [
b10100 1"
b10100 ?"
b10100 B"
b0 ;
b0 W
b0 p
b0 ~
b0 j"
b0 q"
1U
b10100 A
b10100 O
b10100 \"
b10100 b"
b10100 ]
b10100 j
b10100 2"
b10100 9"
1q
b1001 |"
b1001 "#
b1000000001100111 H
b1000000001100111 H"
b1000000001100111 Q"
b110 6"
b10 8"
b11 7"
b110011 n
b110011 ""
b1000011000000000000000 7
b1000011000000000000000 P
b1000011000000000000000 l"
b1000011000000000000000 p"
b1000011000000000000000 R
b1000011000000000000000 '"
b1000011000000000000000 -"
b11000000000000010 Q
b11000000000000010 ("
b11000000000000010 ,"
b110 S
b110 &"
b110 +"
b110 T
b110 %"
b110 *"
b10 c
b10 $"
b10 )"
b100000 =
b100000 G"
b100000 N"
b100000 W"
b100000 Y"
b100100 '
b100100 >
b100100 P"
b100100 X"
b1000000001100111 -
b1000000001100111 E
b1000000001100111 O"
b1000000001100111 !#
b1000000001100111 %#
b11100 <
b11100 X
b11100 4"
b11100 F"
b11100 K"
b11100 k"
b11100 o"
b1000011000001100110011 G
b1000011000001100110011 d
b1000011000001100110011 #"
b1000011000001100110011 E"
b1000011000001100110011 J"
b1000011000001100110011 ["
1!
#90000
0!
#95000
b0 a"
b11 t"
b11 x"
b100100 :
b100100 V
b100100 ;"
b100100 m"
b100100 s"
b0 a
b0 /"
b0 0"
b1100 3
b1100 4
b1100 J
b1100 @"
b1100 D"
b1100 M"
b1100 T"
b1100 U"
b1100 V"
b1100 Z"
b1100 h"
b1100 n"
b0 ?
b0 [
b0 1"
b0 ?"
b0 B"
b1100 @
b1100 \
b1100 3"
b1100 ="
b1100 A"
b1 b
b1 v
b1 }
b1 ."
b10 ;
b10 W
b10 p
b10 ~
b10 j"
b10 q"
1L
1Y
b0 A
b0 O
b0 \"
b0 b"
b0 ]
b0 j
b0 2"
b0 9"
b1100 ^
b1100 k
b1100 5"
b1100 :"
0q
1t
b1010 |"
b1010 "#
b0 6"
b0 8"
b1 7"
b1100111 n
b1100111 ""
b1000000000000000 7
b1000000000000000 P
b1000000000000000 l"
b1000000000000000 p"
b1000000000000000 R
b1000000000000000 '"
b1000000000000000 -"
b1000000000000000 Q
b1000000000000000 ("
b1000000000000000 ,"
b0 S
b0 &"
b0 +"
b0 T
b0 %"
b0 *"
b0 c
b0 $"
b0 )"
b11000010010001000100011 H
b11000010010001000100011 H"
b11000010010001000100011 Q"
b100100 =
b100100 G"
b100100 N"
b100100 W"
b100100 Y"
b101000 '
b101000 >
b101000 P"
b101000 X"
b100000 <
b100000 X
b100000 4"
b100000 F"
b100000 K"
b100000 k"
b100000 o"
b1000000001100111 G
b1000000001100111 d
b1000000001100111 #"
b1000000001100111 E"
b1000000001100111 J"
b1000000001100111 ["
b11000010010001000100011 -
b11000010010001000100011 E
b11000010010001000100011 O"
b11000010010001000100011 !#
b11000010010001000100011 %#
1!
#100000
0!
#105000
b0 t"
b0 x"
b0 3
b0 4
b0 J
b0 @"
b0 D"
b0 M"
b0 T"
b0 U"
b0 V"
b0 Z"
b0 h"
b0 n"
b100 :
b100 V
b100 ;"
b100 m"
b100 s"
b0 @
b0 \
b0 3"
b0 ="
b0 A"
0L
0Y
0U
b0 ^
b0 k
b0 5"
b0 :"
0t
b11 |"
b11 "#
b10000010010001110000011 H
b10000010010001110000011 H"
b10000010010001110000011 Q"
b0 7"
b0 n
b0 ""
b0 7
b0 P
b0 l"
b0 p"
b0 R
b0 '"
b0 -"
b0 Q
b0 ("
b0 ,"
b101000 =
b101000 G"
b101000 N"
b101000 W"
b101000 Y"
b1100 '
b1100 >
b1100 P"
b1100 X"
b10000010010001110000011 -
b10000010010001110000011 E
b10000010010001110000011 O"
b10000010010001110000011 !#
b10000010010001110000011 %#
b0 <
b0 X
b0 4"
b0 F"
b0 K"
b0 k"
b0 o"
1I"
b0 G
b0 d
b0 #"
b0 E"
b0 J"
b0 ["
1!
#110000
0!
#115000
b100 |"
b100 "#
b1111000010000000110010011 H
b1111000010000000110010011 H"
b1111000010000000110010011 Q"
b1100 =
b1100 G"
b1100 N"
b1100 W"
b1100 Y"
b10000 '
b10000 >
b10000 P"
b10000 X"
0I"
b1111000010000000110010011 -
b1111000010000000110010011 E
b1111000010000000110010011 O"
b1111000010000000110010011 !#
b1111000010000000110010011 %#
1!
#120000
0!
#125000
b10 a"
b1100 t"
b1100 x"
b110010 3
b110010 4
b110010 J
b110010 @"
b110010 D"
b110010 M"
b110010 T"
b110010 U"
b110010 V"
b110010 Z"
b110010 h"
b110010 n"
b11110 ?
b11110 [
b11110 1"
b11110 ?"
b11110 B"
b110010 :
b110010 V
b110010 ;"
b110010 m"
b110010 s"
b10100 @
b10100 \
b10100 3"
b10100 ="
b10100 A"
b0 ;
b0 W
b0 p
b0 ~
b0 j"
b0 q"
1Y
1U
b11110 a
b11110 /"
b11110 0"
b10100 ^
b10100 k
b10100 5"
b10100 :"
1w
b101 |"
b101 "#
b1001000110111 H
b1001000110111 H"
b1001000110111 Q"
b11 6"
b11110 8"
b10 7"
b10011 n
b10011 ""
b1111000010000000000000000 7
b1111000010000000000000000 P
b1111000010000000000000000 l"
b1111000010000000000000000 p"
b1111000010000000000000000 R
b1111000010000000000000000 '"
b1111000010000000000000000 -"
b10000000000011110 Q
b10000000000011110 ("
b10000000000011110 ,"
b100000000010 S
b100000000010 &"
b100000000010 +"
b11 T
b11 %"
b11 *"
b11110 c
b11110 $"
b11110 )"
b10000 =
b10000 G"
b10000 N"
b10000 W"
b10000 Y"
b10100 '
b10100 >
b10100 P"
b10100 X"
b1001000110111 -
b1001000110111 E
b1001000110111 O"
b1001000110111 !#
b1001000110111 %#
b1100 <
b1100 X
b1100 4"
b1100 F"
b1100 K"
b1100 k"
b1100 o"
b1111000010000000110010011 G
b1111000010000000110010011 d
b1111000010000000110010011 #"
b1111000010000000110010011 E"
b1111000010000000110010011 J"
b1111000010000000110010011 ["
1!
#130000
0!
#135000
b0 a"
b0 t"
b0 x"
b0 3
b0 4
b0 J
b0 @"
b0 D"
b0 M"
b0 T"
b0 U"
b0 V"
b0 Z"
b0 h"
b0 n"
b0 @
b0 \
b0 3"
b0 ="
b0 A"
b1000000000000 :
b1000000000000 V
b1000000000000 ;"
b1000000000000 m"
b1000000000000 s"
b0 ?
b0 [
b0 1"
b0 ?"
b0 B"
b1000000000000 a
b1000000000000 /"
b1000000000000 0"
b0 ^
b0 k
b0 5"
b0 :"
b100 b
b100 v
b100 }
b100 ."
b11 ;
b11 W
b11 p
b11 ~
b11 j"
b11 q"
1h
0Y
0w
1r
b110 |"
b110 "#
b1 c"
b1 i
b100 6"
b0 8"
b0 7"
b1 l
b1 {
b110111 n
b110111 ""
b1000000000000 7
b1000000000000 P
b1000000000000 l"
b1000000000000 p"
b1000000000000 R
b1000000000000 '"
b1000000000000 -"
b1000000000000 Q
b1000000000000 ("
b1000000000000 ,"
b100 S
b100 &"
b100 +"
b100 T
b100 %"
b100 *"
b0 c
b0 $"
b0 )"
b1000000000000001010010111 H
b1000000000000001010010111 H"
b1000000000000001010010111 Q"
b10100 =
b10100 G"
b10100 N"
b10100 W"
b10100 Y"
b11000 '
b11000 >
b11000 P"
b11000 X"
b10000 <
b10000 X
b10000 4"
b10000 F"
b10000 K"
b10000 k"
b10000 o"
b1001000110111 G
b1001000110111 d
b1001000110111 #"
b1001000110111 E"
b1001000110111 J"
b1001000110111 ["
b1000000000000001010010111 -
b1000000000000001010010111 E
b1000000000000001010010111 O"
b1000000000000001010010111 !#
b1000000000000001010010111 %#
1!
#140000
0!
